bis15l_project
…
Finding drug resistant cases per year:

## `summarise()` has grouped output by 'year'. You can override using the
## `.groups` argument.

## # A tibble: 31 x 3
## # Groups:   year [10]
##     year drug_resistance total_drug
##    <dbl> <chr>                <int>
##  1  2004 FCZ                      1
##  2  2004 NR                       1
##  3  2008 NR                       3
##  4  2011 FCZ                      1
##  5  2012 FCZ                     17
##  6  2012 MDR                      9
##  7  2012 NR                       2
##  8  2013 FCZ                     12
##  9  2013 MDR                      4
## 10  2014 FCZ                     24
## # ... with 21 more rows
…
