Exploratory Data Analysis on Candida auris Surveillance and Antifungal Resistance
…
## # A tibble: 10 x 2
##     year total_cases
##    <dbl>       <int>
##  1  2004           2
##  2  2008           3
##  3  2011           1
##  4  2012          28
##  5  2013          16
##  6  2014          35
##  7  2015          61
##  8  2016          92
##  9  2017          55
## 10  2018          12

## # A tibble: 31 x 3
## # Groups:   year [10]
##     year drug_resistance total_drug
##    <dbl> <chr>                <int>
##  1  2004 FCZ                      1
##  2  2004 NR                       1
##  3  2008 NR                       3
##  4  2011 FCZ                      1
##  5  2012 FCZ                     17
##  6  2012 MDR                      9
##  7  2012 NR                       2
##  8  2013 FCZ                     12
##  9  2013 MDR                      4
## 10  2014 FCZ                     24
## # ... with 21 more rows
…
